<?xml version="1.0" encoding="UTF-8"?>
<svg width="56px" height="80px" viewBox="0 0 56 80" version="1.1" xmlns="http://www.w3.org/2000/svg" xmlns:xlink="http://www.w3.org/1999/xlink">
    <!-- Generator: Sketch 51.2 (57519) - http://www.bohemiancoding.com/sketch -->
    <title>Artboard 3</title>
    <desc>Created with Sketch.</desc>
    <defs>
        <path d="M8,0 C3.581,0 0,3.581 0,8 L0,72 C0,76.419 3.581,80 8,80 L399,80 C403.418,80 407,76.419 407,72 L407,8 C407,3.581 403.418,0 399,0 L8,0 Z" id="path-1"></path>
    </defs>
    <g id="Artboard-3" stroke="none" stroke-width="1" fill="none" fill-rule="evenodd">
        <g id="Group-9">
            <g id="Group-3">
                <mask id="mask-2" fill="white">
                    <use xlink:href="#path-1"></use>
                </mask>
                <g id="Clip-2"></g>
            </g>
            <g id="Group-8" transform="translate(8.000000, 4.000000)" fill="#FFFFFF">
                <path d="M4,58 L4,14 C4,10.691 6.691,8 10,8 L37,8 L37,12 L48,6 L37,0 L37,4 L10,4 C4.486,4 0,8.486 0,14 L0,58 C0,63.514 4.486,68 10,68 L38,68 L38,64 L10,64 C6.691,64 4,61.309 4,58" id="Fill-4"></path>
            </g>
        </g>
    </g>
</svg>